<?xml version="1.0" encoding="UTF-8" standalone="no"?>
<!-- Created with Inkscape (http://www.inkscape.org/) -->

<svg
   xmlns:dc="http://purl.org/dc/elements/1.1/"
   xmlns:cc="http://creativecommons.org/ns#"
   xmlns:rdf="http://www.w3.org/1999/02/22-rdf-syntax-ns#"
   xmlns:svg="http://www.w3.org/2000/svg"
   xmlns="http://www.w3.org/2000/svg"
   xmlns:xlink="http://www.w3.org/1999/xlink"
   xmlns:sodipodi="http://sodipodi.sourceforge.net/DTD/sodipodi-0.dtd"
   xmlns:inkscape="http://www.inkscape.org/namespaces/inkscape"
   version="1.1"
   id="svg2"
   width="831.35999"
   height="1020.48"
   viewBox="0 0 831.35999 1020.48"
   sodipodi:docname="PCMINI_E01.svg"
   inkscape:version="0.92.2 (5c3e80d, 2017-08-06)"
   inkscape:export-filename="C:\Users\nicol\Pictures\Webcomic\Rendu\2017-05-01_en_01_Pepper-and-Carrot-Mini_by_Nartance.png"
   inkscape:export-xdpi="300"
   inkscape:export-ydpi="300">
  <metadata
     id="metadata8">
    <rdf:RDF>
      <cc:Work
         rdf:about="">
        <dc:format>image/svg+xml</dc:format>
        <dc:type
           rdf:resource="http://purl.org/dc/dcmitype/StillImage" />
        <dc:title />
      </cc:Work>
    </rdf:RDF>
  </metadata>
  <defs
     id="defs6">
    <filter
       style="color-interpolation-filters:sRGB"
       id="filter4375-4-1-1-1-9-5"
       inkscape:label="deevad outline effect">
      <feFlood
         id="feFlood4377-7-9-0-8-1-7"
         flood-opacity="1"
         flood-color="rgb(0,0,0)"
         result="flood" />
      <feComposite
         id="feComposite4379-3-8-8-2-77-4"
         in2="SourceGraphic"
         in="flood"
         operator="in"
         result="composite1" />
      <feMorphology
         id="feMorphology4393-1-0-49-8-9-3"
         operator="dilate"
         radius="1.3999999999999999"
         result="result3" />
      <feComposite
         id="feComposite4385-9-5-7-0-8-8"
         in2="result3"
         in="SourceGraphic"
         operator="over"
         result="composite2" />
    </filter>
  </defs>
  <sodipodi:namedview
     pagecolor="#ffffff"
     bordercolor="#666666"
     borderopacity="1"
     objecttolerance="10"
     gridtolerance="10"
     guidetolerance="10"
     inkscape:pageopacity="0"
     inkscape:pageshadow="2"
     inkscape:window-width="1920"
     inkscape:window-height="994"
     id="namedview4"
     showgrid="false"
     inkscape:zoom="1.3082252"
     inkscape:cx="345.60397"
     inkscape:cy="813.96541"
     inkscape:window-x="0"
     inkscape:window-y="26"
     inkscape:window-maximized="1"
     inkscape:current-layer="svg2" />
  <image
     sodipodi:absref="/home/nightlock/peppercarrot/peppercarrotmini/lang/ko/../../png/01/gfx_Pepper-and-Carrot-MINI_by_Nicolas_Artance_E01.png"
     xlink:href="../../png/01/gfx_Pepper-and-Carrot-MINI_by_Nicolas_Artance_E01.png"
     style=""
     width="831.35999"
     height="1020.48"
     preserveAspectRatio="none"
     id="image10"
     x="0"
     y="0" />
  <path
     style="fill:#ffffff;stroke:none;stroke-width:0.20022206"
     d="m 422.07581,123.78056 c 2.3423,-9.31122 10.4338,-18.2234 59.19568,-19.42056 24.38096,-0.59857 71.37743,-0.85203 94.77467,3.49703 23.39725,4.34908 23.19523,13.30068 23.30171,16.82563 0.10645,3.52497 2.06196,12.26289 -21.97,15.68827 -24.03199,3.42538 -74.05139,1.53822 -93.74779,1.67124 -39.3928,0.26603 -60.27666,-0.0382 -61.55427,-18.26161 z"
     id="path3270-6"
     inkscape:connector-curvature="0"
     sodipodi:nodetypes="csssssc" />
  <path
     style="fill:#ffffff;stroke:none;stroke-width:0.31065878"
     d="m 465.14072,182.09147 c 8.8515,-16.52356 6.77198,-40.46116 -14.30538,-50.17254 -12.7708,-5.88414 -21.0772,-7.97929 -21.0772,-7.97929 l 11.32834,-8.51179 14.76892,5.81525 c 0,0 33.79437,23.74133 9.28532,60.84837 z"
     id="path3063"
     inkscape:connector-curvature="0"
     sodipodi:nodetypes="cscccc" />
  <rect
     style="fill:#ffffff;stroke:#feffff;stroke-width:1.00307548;stroke-opacity:1"
     id="rect4571"
     width="193.68797"
     height="33.509552"
     x="217.4315"
     y="708.61572" />
  <flowRoot
     xml:space="preserve"
     id="flowRoot4573"
     style="fill:#000000;fill-opacity:1;stroke:none;font-family:Lavi;font-style:normal;font-weight:normal;font-size:16px;line-height:1.25;letter-spacing:0px;word-spacing:0px;-inkscape-font-specification:'Lavi, Normal';font-stretch:normal;font-variant:normal;text-anchor:start;text-align:start;writing-mode:lr;font-variant-ligatures:normal;font-variant-caps:normal;font-variant-numeric:normal;font-feature-settings:normal;"><flowRegion
       id="flowRegion4575"
       style="font-size:16px;fill:#000000;"><rect
         id="rect4577"
         width="199.29344"
         height="33.495361"
         x="217.43861"
         y="708.6228"
         style="font-size:16px;fill:#000000;" /></flowRegion><flowPara
       id="flowPara4579" /></flowRoot>  <path
     style="color:#000000;display:inline;overflow:visible;visibility:visible;fill:#ffffff;fill-opacity:1;fill-rule:nonzero;stroke:none;stroke-width:0.28336376px;marker:none;enable-background:accumulate"
     d="m 477.53287,784.82322 c -8.53311,-14.76771 -7.61885,-43.5647 -5.1808,-50.21015 2.43802,-6.64548 5.7903,-16.61364 17.37096,-16.61364 11.58066,0 92.03569,-7.01467 103.92109,8.49143 11.88539,15.50607 11.58065,42.45707 1.21903,60.5475 -10.36164,18.09041 -65.82687,14.39849 -65.82687,14.39849 0,0 -38.39897,2.21517 -51.50341,-16.61363 z"
     id="path3992"
     inkscape:connector-curvature="0" />
  <path
     style="color:#000000;display:inline;overflow:visible;visibility:visible;fill:#ffffff;fill-opacity:1;fill-rule:nonzero;stroke:none;stroke-width:0.28180879px;marker:none;enable-background:accumulate"
     d="m 449.65801,802.13382 c 27.23528,-13.28914 36.48889,-24.71472 44.50686,-36.00786 3.77265,-5.31367 -12.73237,-11.10815 -12.73237,-11.10815 l -5.29574,12.08102 c 0,0 -5.28717,20.56745 -26.47875,35.03499 z"
     id="path4000"
     inkscape:connector-curvature="0"
     sodipodi:nodetypes="csccc" />
  <flowRoot
     transform="matrix(1.2430163,0,0,1.3075247,107.98304,25.8137)"
     style="font-style:normal;font-variant:normal;font-weight:normal;font-stretch:normal;font-size:40px;line-height:1.25;font-family:'Nanum Pen Script OTF';-inkscape-font-specification:'Nanum Pen Script OTF';letter-spacing:0px;word-spacing:0px;fill:#000000;fill-opacity:1;stroke:none"
     id="flowRoot57"
     xml:space="preserve"><flowRegion
       style="font-style:normal;font-variant:normal;font-weight:normal;font-stretch:normal;font-family:'Nanum Pen Script OTF';-inkscape-font-specification:'Nanum Pen Script OTF'"
       id="flowRegion53"><rect
         style="font-style:normal;font-variant:normal;font-weight:normal;font-stretch:normal;font-family:'Nanum Pen Script OTF';-inkscape-font-specification:'Nanum Pen Script OTF'"
         y="-14.053221"
         x="17.29627"
         height="55.157722"
         width="462.51071"
         id="rect51" /></flowRegion><flowPara
       style="font-style:normal;font-variant:normal;font-weight:normal;font-stretch:normal;font-family:'Nanum Pen Script OTF';-inkscape-font-specification:'Nanum Pen Script OTF'"
       id="flowPara55">후추와 당근 미니</flowPara></flowRoot>  <flowRoot
     transform="matrix(1.2081899,0,0,1.2081899,-323.20308,-0.51769582)"
     style="font-style:normal;font-variant:normal;font-weight:normal;font-stretch:normal;font-size:18.66666603px;line-height:1;font-family:'Nanum Pen Script OTF';-inkscape-font-specification:'Nanum Pen Script OTF';text-align:end;letter-spacing:0px;word-spacing:0px;text-anchor:end;fill:#000000;fill-opacity:1;stroke:none"
     id="flowRoot69"
     xml:space="preserve"><flowRegion
       style="font-style:normal;font-variant:normal;font-weight:normal;font-stretch:normal;font-size:18.66666603px;line-height:1;font-family:'Nanum Pen Script OTF';-inkscape-font-specification:'Nanum Pen Script OTF';text-align:end;text-anchor:end"
       id="flowRegion61"><rect
         style="font-style:normal;font-variant:normal;font-weight:normal;font-stretch:normal;font-size:18.66666603px;line-height:1;font-family:'Nanum Pen Script OTF';-inkscape-font-specification:'Nanum Pen Script OTF';text-align:end;text-anchor:end"
         y="6.4861007"
         x="562.12878"
         height="104.85864"
         width="378.35593"
         id="rect59" /></flowRegion><flowPara
       style="font-style:normal;font-variant:normal;font-weight:normal;font-stretch:normal;font-size:18.66666603px;line-height:1;font-family:'Nanum Pen Script OTF';-inkscape-font-specification:'Nanum Pen Script OTF'"
       id="flowPara63">지은이: Nicolas Artance</flowPara><flowPara
       id="flowPara65"
       style="font-style:normal;font-variant:normal;font-weight:normal;font-stretch:normal;font-size:18.66666603px;line-height:1;font-family:'Nanum Pen Script OTF';-inkscape-font-specification:'Nanum Pen Script OTF'">David Revoy의 CC-BY 웹툰인</flowPara><flowPara
       id="flowPara67"
       style="font-style:normal;font-variant:normal;font-weight:normal;font-stretch:normal;font-size:18.66666603px;line-height:1;font-family:'Nanum Pen Script OTF';-inkscape-font-specification:'Nanum Pen Script OTF'">후추와 당근을 바탕으로 함</flowPara><flowPara
       style="font-style:normal;font-variant:normal;font-weight:normal;font-stretch:normal;font-size:18.66666603px;line-height:1;font-family:'Nanum Pen Script OTF';-inkscape-font-specification:'Nanum Pen Script OTF'"
       id="flowPara56">한글 번역: Jihoon Kim</flowPara></flowRoot>  <flowRoot
     transform="matrix(2.1881359,0,0,2.4558185,12.491947,-187.78971)"
     style="font-style:normal;font-variant:normal;font-weight:normal;font-stretch:normal;font-size:40px;line-height:1.25;font-family:'Nanum Pen Script OTF';-inkscape-font-specification:'Nanum Pen Script OTF';letter-spacing:0px;word-spacing:0px;fill:#000000;fill-opacity:1;stroke:none"
     id="flowRoot77"
     xml:space="preserve"><flowRegion
       style="font-style:normal;font-variant:normal;font-weight:normal;font-stretch:normal;font-family:'Nanum Pen Script OTF';-inkscape-font-specification:'Nanum Pen Script OTF'"
       id="flowRegion73"><rect
         style="font-style:normal;font-variant:normal;font-weight:normal;font-stretch:normal;font-family:'Nanum Pen Script OTF';-inkscape-font-specification:'Nanum Pen Script OTF'"
         y="79.995255"
         x="153.50441"
         height="82.157288"
         width="281.06439"
         id="rect71" /></flowRegion><flowPara
       style="font-style:normal;font-variant:normal;font-weight:normal;font-stretch:normal;font-size:14.66666698px;font-family:'Nanum Pen Script OTF';-inkscape-font-specification:'Nanum Pen Script OTF'"
       id="flowPara111">#1 - 캠프파이어</flowPara></flowRoot>  <flowRoot
     transform="matrix(1.5213704,0,0,1.5213704,-404.99987,-63.858167)"
     style="font-style:normal;font-variant:normal;font-weight:normal;font-stretch:normal;font-size:14.66666698px;line-height:1.25;font-family:'Nanum Pen Script OTF';-inkscape-font-specification:'Nanum Pen Script OTF';font-variant-ligatures:normal;font-variant-caps:normal;font-variant-numeric:normal;font-feature-settings:normal;text-align:center;letter-spacing:0px;word-spacing:0px;writing-mode:lr-tb;text-anchor:middle;fill:#000000;fill-opacity:1;stroke:none"
     id="flowRoot85"
     xml:space="preserve"><flowRegion
       style="font-style:normal;font-variant:normal;font-weight:normal;font-stretch:normal;font-size:14.66666698px;font-family:'Nanum Pen Script OTF';-inkscape-font-specification:'Nanum Pen Script OTF';text-align:center;text-anchor:middle"
       id="flowRegion81"><rect
         style="font-style:normal;font-variant:normal;font-weight:normal;font-stretch:normal;font-size:14.66666698px;font-family:'Nanum Pen Script OTF';-inkscape-font-specification:'Nanum Pen Script OTF';text-align:center;text-anchor:middle"
         y="115.42785"
         x="441.08649"
         height="46.724689"
         width="319.9494"
         id="rect79" /></flowRegion><flowPara
       id="flowPara83"
       style="font-style:normal;font-variant:normal;font-weight:normal;font-stretch:normal;font-size:14.66666698px;font-family:'Nanum Pen Script OTF';-inkscape-font-specification:'Nanum Pen Script OTF';text-align:center;text-anchor:middle">근데 사프란, 넌 뭐 먹어?</flowPara></flowRoot>  <text
     transform="matrix(0.29572472,-0.07943659,-0.0454269,0.28498667,-19.024658,284.16691)"
     id="text93"
     y="1584.5073"
     x="787.65729"
     style="font-style:normal;font-variant:normal;font-weight:normal;font-stretch:normal;line-height:0%;font-family:'Nanum Pen Script OTF';-inkscape-font-specification:'Nanum Pen Script OTF';letter-spacing:0px;word-spacing:0px;fill:#000000;fill-opacity:1;stroke:#000000;stroke-width:0.65425924;stroke-miterlimit:4;stroke-dasharray:none;stroke-opacity:1;filter:url(#filter4375-4-1-1-1-9-5);"
     xml:space="preserve"><tspan
       style="font-style:normal;font-variant:normal;font-weight:normal;font-stretch:normal;font-size:70px;line-height:1.25;font-family:'Nanum Pen Script OTF';-inkscape-font-specification:'Nanum Pen Script OTF';fill:#000000;stroke-width:0.65425924;"
       y="1584.5073"
       x="787.65729"
       id="tspan91"
       sodipodi:role="line"><tspan
         id="tspan89"
         style="font-style:normal;font-variant:normal;font-weight:normal;font-stretch:normal;font-size:114.73223114px;font-family:'Nanum Pen Script OTF';-inkscape-font-specification:'Nanum Pen Script OTF';stroke-width:0.65425924;">냠!</tspan></tspan></text>
  <text
     transform="matrix(0.85995482,-0.44867626,0,1.1628518,0,0)"
     id="text97"
     y="705.04639"
     x="702.04712"
     style="color:#000000;font-style:normal;font-variant:normal;font-weight:normal;font-stretch:normal;font-size:6.46454716px;line-height:0%;font-family:'Nanum Pen Script OTF';-inkscape-font-specification:'Nanum Pen Script OTF';letter-spacing:0px;word-spacing:0px;display:inline;overflow:visible;visibility:visible;fill:#e69d76;fill-opacity:1;fill-rule:nonzero;stroke:#e99f77;stroke-width:1.38089218;stroke-miterlimit:4;stroke-dasharray:none;stroke-opacity:1;marker:none;enable-background:accumulate;"
     xml:space="preserve"><tspan
       style="font-style:normal;font-variant:normal;font-weight:normal;font-stretch:normal;font-size:27.13109398px;line-height:1.25;font-family:'Nanum Pen Script OTF';-inkscape-font-specification:'Nanum Pen Script OTF';text-align:center;text-anchor:middle;fill:#000000;stroke:#000000;stroke-width:1.38089218;stroke-miterlimit:4;stroke-dasharray:none;"
       y="705.04639"
       x="702.04712"
       id="tspan95"
       sodipodi:role="line">꺼억!</tspan></text>
  <text
     id="text101"
     y="730.73328"
     x="308.20773"
     style="font-style:normal;font-variant:normal;font-weight:normal;font-stretch:normal;font-size:27.49206543px;line-height:1.25;font-family:'Nanum Pen Script OTF';-inkscape-font-specification:'Nanum Pen Script OTF';font-variant-ligatures:normal;font-variant-caps:normal;font-variant-numeric:normal;font-feature-settings:normal;text-align:start;letter-spacing:0px;word-spacing:0px;writing-mode:lr-tb;text-anchor:start;fill:#000000;fill-opacity:1;stroke:none;stroke-width:1.28869057"
     xml:space="preserve"><tspan
       style="font-style:normal;font-variant:normal;font-weight:normal;font-stretch:normal;font-size:20.61904907px;font-family:'Nanum Pen Script OTF';-inkscape-font-specification:'Nanum Pen Script OTF';text-align:center;text-anchor:middle;stroke-width:1.28869057"
       y="730.73328"
       x="308.20773"
       id="tspan99"
       sodipodi:role="line">몇 초 후...</tspan></text>
  <text
     id="text109"
     y="744.65637"
     x="533.66119"
     style="font-style:normal;font-variant:normal;font-weight:normal;font-stretch:normal;font-size:17.6682148px;line-height:1;font-family:'Nanum Pen Script OTF';-inkscape-font-specification:'Nanum Pen Script OTF';font-variant-ligatures:normal;font-variant-caps:normal;font-variant-numeric:normal;font-feature-settings:normal;text-align:start;letter-spacing:0px;word-spacing:0px;writing-mode:lr-tb;text-anchor:start;fill:#000000;fill-opacity:1;stroke:none;stroke-width:1.204651"
     xml:space="preserve"><tspan
       id="tspan107"
       style="font-style:normal;font-variant:normal;font-weight:normal;font-stretch:normal;font-size:17.6682148px;line-height:1;font-family:'Nanum Pen Script OTF';-inkscape-font-specification:'Nanum Pen Script OTF';text-align:center;text-anchor:middle;stroke-width:1.204651"
       y="744.65637"
       x="533.66119"
       sodipodi:role="line">나</tspan><tspan
       style="font-style:normal;font-variant:normal;font-weight:normal;font-stretch:normal;font-size:17.6682148px;line-height:1;font-family:'Nanum Pen Script OTF';-inkscape-font-specification:'Nanum Pen Script OTF';text-align:center;text-anchor:middle;stroke-width:1.204651"
       y="762.32458"
       x="533.66119"
       sodipodi:role="line"
       id="tspan69">캠프파이어</tspan><tspan
       style="font-style:normal;font-variant:normal;font-weight:normal;font-stretch:normal;font-size:17.6682148px;line-height:1;font-family:'Nanum Pen Script OTF';-inkscape-font-specification:'Nanum Pen Script OTF';text-align:center;text-anchor:middle;stroke-width:1.204651"
       y="779.9928"
       x="533.66119"
       sodipodi:role="line"
       id="tspan71">진짜 싫어.</tspan></text>
</svg>
