<?xml version="1.0" encoding="UTF-8" standalone="no"?>
<!-- Created with Inkscape (http://www.inkscape.org/) -->

<svg
   xmlns:dc="http://purl.org/dc/elements/1.1/"
   xmlns:cc="http://creativecommons.org/ns#"
   xmlns:rdf="http://www.w3.org/1999/02/22-rdf-syntax-ns#"
   xmlns:svg="http://www.w3.org/2000/svg"
   xmlns="http://www.w3.org/2000/svg"
   xmlns:xlink="http://www.w3.org/1999/xlink"
   xmlns:sodipodi="http://sodipodi.sourceforge.net/DTD/sodipodi-0.dtd"
   xmlns:inkscape="http://www.inkscape.org/namespaces/inkscape"
   version="1.1"
   id="svg2"
   width="1285.12"
   height="2645.76"
   viewBox="0 0 1285.12 2645.76"
   sodipodi:docname="PCMINI_E11.svg"
   inkscape:version="0.92.2 5c3e80d, 2017-08-06"
   inkscape:export-filename="C:\Users\nicol\Pictures\Webcomic\Rendu\2018-02-04_en_10_Pepper-and-Carrot-Mini_by_Nartance.png"
   inkscape:export-xdpi="300"
   inkscape:export-ydpi="300">
  <metadata
     id="metadata8">
    <rdf:RDF>
      <cc:Work
         rdf:about="">
        <dc:format>image/svg+xml</dc:format>
        <dc:type
           rdf:resource="http://purl.org/dc/dcmitype/StillImage" />
        <dc:title />
      </cc:Work>
    </rdf:RDF>
  </metadata>
  <defs
     id="defs6" />
  <sodipodi:namedview
     pagecolor="#ffffff"
     bordercolor="#666666"
     borderopacity="1"
     objecttolerance="10"
     gridtolerance="10"
     guidetolerance="10"
     inkscape:pageopacity="0"
     inkscape:pageshadow="2"
     inkscape:window-width="1280"
     inkscape:window-height="971"
     id="namedview4"
     showgrid="false"
     inkscape:zoom="0.70710678"
     inkscape:cx="630.66861"
     inkscape:cy="2357.5412"
     inkscape:window-x="0"
     inkscape:window-y="27"
     inkscape:window-maximized="1"
     inkscape:current-layer="svg2" />
  <image
     sodipodi:absref="/run/media/zveryok/Media/Work/Not Done/Translation/peppercarrotmini/lang/uk/../../png/11/gfx_Pepper-and-Carrot-MINI_by_Nicolas_Artance_E11.png"
     xlink:href="../../png/11/gfx_Pepper-and-Carrot-MINI_by_Nicolas_Artance_E11.png"
     width="1285.12"
     height="2645.76"
     preserveAspectRatio="none"
     id="image10"
     x="0"
     y="0" />
  <flowRoot
     xml:space="preserve"
     id="flowRoot3682"
     style="font-style:normal;font-variant:normal;font-weight:normal;font-stretch:normal;font-size:40px;line-height:1.25;font-family:Lavi;-inkscape-font-specification:Lavi;letter-spacing:0px;word-spacing:0px;fill:#000000;fill-opacity:1;stroke:none"
     transform="matrix(1.2859881,0,0,1.5356972,26.13982,23.568778)"
     inkscape:export-filename="C:\Users\nicol\Pictures\Fourre merde\Webcomics\Pepper et Carrot\Pepper Et Carrot MINI\Rendu\2017-05-01_fr_01_Pepper-and-Carrot-Mini_by_Nartance.png"
     inkscape:export-xdpi="300"
     inkscape:export-ydpi="300"><flowRegion
       id="flowRegion3684"
       style="font-style:normal;font-variant:normal;font-weight:normal;font-stretch:normal;font-family:Lavi;-inkscape-font-specification:Lavi"><rect
         id="rect3686"
         width="510.6315"
         height="51.901875"
         x="17.29627"
         y="-14.053221"
         style="font-style:normal;font-variant:normal;font-weight:normal;font-stretch:normal;font-family:Lavi;-inkscape-font-specification:Lavi" /></flowRegion><flowPara
       id="flowPara3688"
       style="font-style:normal;font-variant:normal;font-weight:normal;font-stretch:normal;font-family:Lavi;-inkscape-font-specification:Lavi">Перчинка та Морквик МІНІ</flowPara></flowRoot>  <flowRoot
     xml:space="preserve"
     id="flowRoot3690"
     style="font-style:normal;font-variant:normal;font-weight:normal;font-stretch:normal;font-size:18.66666603px;line-height:1.25;font-family:Lavi;-inkscape-font-specification:Lavi;text-align:end;letter-spacing:0px;word-spacing:0px;text-anchor:end;fill:#000000;fill-opacity:1;stroke:none"
     transform="matrix(1.4367555,0,0,1.5023619,-88.21826,1.831653)"><flowRegion
       id="flowRegion3692"
       style="font-style:normal;font-variant:normal;font-weight:normal;font-stretch:normal;font-size:18.66666603px;font-family:Lavi;-inkscape-font-specification:Lavi;text-align:end;text-anchor:end"><rect
         id="rect3694"
         width="378.35593"
         height="104.85864"
         x="562.12878"
         y="6.4861007"
         style="font-style:normal;font-variant:normal;font-weight:normal;font-stretch:normal;font-size:18.66666603px;font-family:Lavi;-inkscape-font-specification:Lavi;text-align:end;text-anchor:end" /></flowRegion><flowPara
       style="font-style:normal;font-variant:normal;font-weight:normal;font-stretch:normal;font-size:19.96561623px;font-family:Lavi;-inkscape-font-specification:Lavi"
       id="flowPara3704">Автор: Ніколас Артенс</flowPara><flowPara
       style="font-style:normal;font-variant:normal;font-weight:normal;font-stretch:normal;font-size:19.96561623px;font-family:Lavi;-inkscape-font-specification:Lavi"
       id="flowPara4521">На основі CC-BY коміксу </flowPara><flowPara
       style="font-style:normal;font-variant:normal;font-weight:normal;font-stretch:normal;font-size:19.96561623px;font-family:Lavi;-inkscape-font-specification:Lavi"
       id="flowPara4523">Pepper&amp;Carrot від Давіда Ревуа</flowPara></flowRoot>  <flowRoot
     xml:space="preserve"
     id="flowRoot3706"
     style="font-style:normal;font-variant:normal;font-weight:normal;font-stretch:normal;font-size:40px;line-height:1.25;font-family:Lavi;-inkscape-font-specification:Lavi;text-align:center;letter-spacing:0px;word-spacing:0px;text-anchor:middle;fill:#000000;fill-opacity:1;stroke:none"
     transform="matrix(2.3997225,0,0,2.5211475,-69.087805,-124.12803)"><flowRegion
       id="flowRegion3708"
       style="font-style:normal;font-variant:normal;font-weight:normal;font-stretch:normal;font-family:Lavi;-inkscape-font-specification:Lavi;text-align:center;text-anchor:middle"><rect
         id="rect3710"
         width="281.06439"
         height="82.157288"
         x="153.50441"
         y="79.995255"
         style="font-style:normal;font-variant:normal;font-weight:normal;font-stretch:normal;font-family:Lavi;-inkscape-font-specification:Lavi;text-align:center;text-anchor:middle" /></flowRegion><flowPara
       id="flowPara3712"
       style="font-style:normal;font-variant:normal;font-weight:normal;font-stretch:normal;font-size:16.04188156px;font-family:Lavi;-inkscape-font-specification:Lavi;text-align:center;text-anchor:middle">#11 -  Кошмари студента</flowPara><flowPara
       style="font-style:normal;font-variant:normal;font-weight:normal;font-stretch:normal;font-size:16.04188156px;font-family:Lavi;-inkscape-font-specification:Lavi;text-align:center;text-anchor:middle"
       id="flowPara41" /></flowRoot>  <path
     style="color:#000000;display:inline;overflow:visible;visibility:visible;fill:#ffffff;fill-opacity:1;fill-rule:nonzero;stroke:none;stroke-width:0.66845292px;marker:none;enable-background:accumulate"
     d="m 713.9345,245.64549 c 11.22849,-1.8973 11.22849,-5.69209 6.54997,-10.54083 3.27492,-0.21081 14.50338,1.05405 12.63194,-2.31902 2.80717,-0.42162 6.54996,-0.42162 4.21067,-3.16231 3.27502,-0.21081 12.63204,0.8433 10.29275,-1.89734 6.08209,-0.63243 63.16006,-1.47573 83.74558,-0.42162 20.58549,1.0541 75.79213,0.21081 81.40636,0 5.61423,-0.21081 48.65659,0 52.39947,0 3.74279,0 18.71406,2.31896 23.39253,3.58388 7.01781,-1.68654 15.90693,-1.05401 15.90693,-1.05401 0,0 0,7.16776 1.4036,7.8002 1.4036,0.63248 8.4214,-1.05406 9.825,0 1.4034,1.0541 -9.825,7.37866 -8.4214,7.58943 1.4035,0.21086 12.6321,2.52987 12.6321,3.37311 0,0.8433 -8.8893,4.8488 -8.4216,5.05961 0.4679,0.21081 7.4859,2.9515 6.5502,5.27051 8.4212,0.8432 12.6321,2.9514 14.9712,4.42713 -3.743,2.74068 -12.632,5.27051 -14.5033,6.74618 2.3393,2.52983 8.4213,5.9029 7.0177,6.95705 -1.4035,1.05405 -7.9536,0.84324 -12.6323,-0.42167 1.8716,3.16226 1.4038,28.46038 -7.0176,37.73639 2.3393,2.10816 6.5499,3.58389 7.4856,5.69209 0.9358,2.1082 -1.8715,5.48132 -1.4036,6.53533 0.4679,1.0541 4.2107,4.63803 3.743,6.32456 -0.468,1.68654 -2.3394,3.37308 -5.1464,4.42718 -0.468,1.68653 1.8713,2.95149 -0.468,3.37311 -2.3392,0.42163 -11.69636,-1.89739 -14.03545,-1.47572 -2.33924,0.42162 -0.46787,6.11376 -2.8072,7.16776 -2.33925,1.05411 -52.86726,3.79474 -64.09573,1.47573 -11.69623,-0.42162 -98.24898,8.64358 -134.27361,5.05965 -4.21066,-0.42162 -3.27493,-1.89735 -6.54986,-2.31902 -3.27503,-0.42162 -5.14637,1.05415 -12.16418,0.63248 -6.08211,-2.1082 -14.03555,-2.31901 -26.66761,-12.43827 -4.21064,0 -11.22847,1.05406 -12.16418,-0.63248 -0.93564,-1.68653 0.46785,-2.95135 0.46785,-2.95135 0,0 -4.67852,0.63238 -5.14637,-0.63253 -0.46786,-1.26491 6.08209,-4.63794 5.61423,-5.27042 -0.46786,-0.63243 -13.56768,1.26492 -14.03554,-0.21081 -0.46786,-1.47577 5.14637,-5.05965 4.67851,-6.11375 -0.46785,-1.0541 -23.39256,-17.28707 -15.90697,-66.61845 3.74279,-0.63248 7.48568,-1.26491 7.01782,-2.10815 -0.46787,-0.84334 -6.08211,-2.52988 -6.08211,-2.52988 z"
     id="path3915"
     inkscape:connector-curvature="0" />
  <text
     xml:space="preserve"
     style="font-style:normal;font-variant:normal;font-weight:normal;font-stretch:normal;font-size:37.33333206px;line-height:1.25;font-family:Lavi;-inkscape-font-specification:'Lavi, Normal';font-variant-ligatures:normal;font-variant-caps:normal;font-variant-numeric:normal;font-feature-settings:normal;text-align:center;letter-spacing:0px;word-spacing:0px;writing-mode:lr-tb;text-anchor:middle;fill:#000000;fill-opacity:1;stroke:none"
     x="863.84003"
     y="275.43466"
     id="text5219"><tspan
       sodipodi:role="line"
       x="863.84003"
       y="275.43466"
       id="tspan5221"
       style="font-size:34.66666794px">Де твоя</tspan><tspan
       sodipodi:role="line"
       x="863.84003"
       y="322.10132"
       style="font-size:34.66666794px"
       id="tspan4527">увага?</tspan></text>
  <path
     style="color:#000000;display:inline;overflow:visible;visibility:visible;fill:#ffffff;fill-opacity:1;fill-rule:nonzero;stroke:none;stroke-width:0.63638872px;marker:none;enable-background:accumulate"
     d="m 881.73874,391.42109 c 35.43058,-11.79386 40.95117,-23.87153 46.06005,-32.34479 -2.79164,-1.58753 -6.9465,-5.18408 -6.9465,-5.18408 0,0 11.92738,-16.1114 14.00609,-23.15475 2.07871,-7.04333 -8.59088,-8.4497 -8.59088,-8.4497 0,0 -24.1359,30.96622 -31.68996,36.67807 7.92055,4.09289 10.99336,6.93704 14.75908,7.43339 -0.93141,5.36523 -15.19603,20.55879 -27.59788,25.02186 z"
     id="path4456"
     inkscape:connector-curvature="0" />
  <path
     style="fill:#ffffff;fill-rule:evenodd;stroke:none;stroke-width:1px;stroke-linecap:butt;stroke-linejoin:miter;stroke-opacity:1"
     d="m 712.90787,1136.1078 c 28.83566,2.6139 71.06053,-9.7489 47.7481,-49.1029 45.2496,27.8831 82.34966,23.0155 155.95506,-20.7666 -6.11662,61.0028 26.78125,55.3033 56.43932,43.5915 -28.46343,20.5279 22.6296,32.291 50.11315,33.4441 -58.13873,44.4003 -27.60945,58.521 -4.7008,75.2441 -57.13658,-12.3727 -43.31794,12.6967 -50.14235,26.8729 -49.01454,-32.1197 -84.65963,-24.4966 -112.82025,5.3746 -14.72835,-16.2448 -19.35143,-49.8199 -73.64654,1.7915 19.96567,-44.5555 -6.20482,-39.8788 -48.57536,-17.9152 6.64043,-15.1762 46.10723,-38.2538 -20.37033,-35.8306 41.52317,-14.4273 50.23075,-33.9709 0,-62.7034 z"
     id="path4584"
     inkscape:connector-curvature="0"
     sodipodi:nodetypes="cccccccccccc" />
  <path
     style="color:#000000;display:inline;overflow:visible;visibility:visible;fill:#ffffff;fill-opacity:1;fill-rule:nonzero;stroke:none;stroke-width:0.67425078px;marker:none;enable-background:accumulate"
     d="m 782.38083,1153.1419 c -8.71673,-16.1723 -20.98195,-34.3288 -24.30564,-38.3917 -3.17064,5.3921 -7.03321,9.5706 -9.97897,12.8839 -5.48209,-8.0255 -28.70528,-46.6388 -29.99368,-57.5555 2.01453,27.0305 17.42526,57.4175 27.47897,69.9282 4.74967,-3.6825 7.05661,-6.5262 9.61185,-8.4044 5.34628,6.0205 18.04883,28.8307 18.04883,28.8307 z"
     id="path5066"
     inkscape:connector-curvature="0" />
  <text
     xml:space="preserve"
     style="font-style:normal;font-variant:normal;font-weight:normal;font-stretch:normal;font-size:32px;line-height:1.25;font-family:Lavi;-inkscape-font-specification:'Lavi, Normal';font-variant-ligatures:normal;font-variant-caps:normal;font-variant-numeric:normal;font-feature-settings:normal;text-align:center;letter-spacing:0px;word-spacing:0px;writing-mode:lr-tb;text-anchor:middle;fill:#000000;fill-opacity:1;stroke:none"
     x="867.25787"
     y="1157.4521"
     id="text5237"><tspan
       sodipodi:role="line"
       x="867.25787"
       y="1157.4521"
       id="tspan5239"
       style="font-size:34.66666794px">Де твоя</tspan><tspan
       sodipodi:role="line"
       x="867.25787"
       y="1200.7855"
       style="font-size:34.66666794px"
       id="tspan4531">суворість?!</tspan></text>
  <path
     style="color:#000000;display:inline;overflow:visible;visibility:visible;fill:#ffffff;fill-opacity:1;fill-rule:nonzero;stroke:none;stroke-width:0.62662131px;marker:none;enable-background:accumulate"
     d="m 619.57275,1420.8288 -9.86527,-0.9546 2.32125,8.9097 c -15.60973,0.4835 -23.74269,-2.3129 -34.81832,-3.8184 l 17.40912,11.4553 -2.9015,3.182 c 2.82644,1.8606 7.09127,3.1296 8.12425,5.7277 -7.88546,1.6191 -13.55493,1.618 -20.07622,2.2397 6.13609,2.1517 11.24471,4.6414 14.85347,7.6246 l -20.89095,5.0912 19.14877,4.4542 c -14.40312,7.3243 -32.50596,11.9436 -49.32467,17.5019 l 59.77146,-2.5457 -9.28485,5.7277 c 5.97411,2.9811 5.44616,1.5055 8.12425,2.2274 1.30419,2.1454 -20.54773,11.0655 -18.56978,10.1825 2.32127,-0.3182 22.05164,-1.591 22.05164,-1.591 0,0 -17.40922,8.9097 -15.08796,8.9097 2.32118,0 21.47129,-2.2274 21.47129,-2.2274 l -6.38333,8.5915 24.95312,-4.7731 -10.44553,10.6827 c 6.49217,-0.6285 10.68094,-0.8479 8.3728,2.8667 -15.62037,13.2265 -39.56068,33.3611 -35.72918,37.864 13.2372,-5.0803 33.38331,-20.146 52.30953,-25.6389 12.86018,0.9175 13.63405,4.6753 19.1501,7.3187 l 23.21222,-11.1372 4.06217,7.6369 17.40911,-9.5461 v 9.8644 c 10.8039,-0.6904 16.30065,-6.4732 22.63197,-11.4554 l 1.74091,36.9116 37.71983,-31.1839 7.54402,13.0463 5.8031,-12.0917 1.7409,10.1825 16.24854,-13.6827 12.18644,12.4099 11.60611,-11.4553 c 10.61882,12.527 25.90147,22.4967 43.5229,31.1839 -2.44945,-12.8453 -4.49348,-25.3202 -3.48183,-35.0024 6.57679,-1.0089 13.15358,1.0091 19.73037,3.8185 l -3.48183,-8.5915 24.37287,5.7276 -11.02585,-13.3645 c 37.20431,-0.4282 29.73551,1.8654 38.30024,3.182 l -6.96369,-8.5915 25.53344,6.6823 c -6.97524,-7.1097 -16.13713,-14.8189 -20.891,-21.3196 l 26.694,1.591 c -10.4605,-5.7197 -23.60296,-9.9687 -30.92136,-17.4113 l 23.37743,-0.7263 -22.05159,-9.5461 17.40912,-5.4095 -13.92726,-1.2728 23.21215,-11.4553 -30.75619,-0.9546 37.13954,-20.6832 -42.94253,4.4549 3.48174,-14.9556 -23.79244,10.8189 23.79244,-37.548 c -19.22306,13.4306 -34.0347,24.186 -60.10053,33.8644 l -8.37948,-3.7706 -9.28088,1.9527 2.32116,-10.7269 -34.23798,13.0463 3.48185,-6.0458 -10.44551,5.7277 2.32115,-7.9551 -17.98944,9.5461 1.6563,-8.3175 -8.61998,5.4536 -2.65432,-5.226 -10.11237,3.3168 c -3.04273,-13.7888 2.18552,-27.5776 5.80301,-41.3664 -11.87257,15.7849 -26.95029,30.0635 -47.00475,42.0029 l -6.38335,-6.0438 -7.95908,5.5886 -8.03966,-7.2238 -12.10442,8.6321 c -9.57215,-6.5762 -15.14711,-10.6053 -18.9016,-17.1815 1.8516,6.1632 3.19786,10.3035 0.49699,17.0909 -35.3357,-10.3916 -34.27785,-11.3183 -47.50174,-17.0909 -3.62359,7.4197 -7.23457,9.8901 -9.28485,15.5919 z"
     id="path4024"
     inkscape:connector-curvature="0"
     sodipodi:nodetypes="cccccccccccccccccsccccccccccccccccccccccccccccccccccccccccccccccccccccccccccccccccccc" />
  <path
     style="color:#000000;display:inline;overflow:visible;visibility:visible;fill:#ffffff;fill-opacity:1;fill-rule:nonzero;stroke:none;stroke-width:0.5602507px;marker:none;enable-background:accumulate"
     d="m 842.45454,1603.3425 c 10.0957,-19.0517 16.59409,-41.177 30.86941,-56.6575 l -20.76908,2.2863 c 0.8856,-9.6447 7.9132,-15.356 12.8552,-22.4028 l -13.9367,-1.0508 c 2.3979,-22.6229 14.27598,-36.9078 21.57197,-55.2228 l -23.66901,0.2674 c -4.709,20.3508 -5.53524,42.6179 -14.61164,60.8131 l 14.05873,2.5312 c -2.01826,7.1192 -4.37506,14.0478 -8.24396,20.1241 l 17.31836,1.5446 z"
     id="path4032"
     inkscape:connector-curvature="0"
     sodipodi:nodetypes="cccccccccccc" />
  <text
     xml:space="preserve"
     style="font-style:normal;font-variant:normal;font-weight:normal;font-stretch:normal;font-size:32px;line-height:1.25;font-family:Lavi;-inkscape-font-specification:'Lavi, Normal';font-variant-ligatures:normal;font-variant-caps:normal;font-variant-numeric:normal;font-feature-settings:normal;text-align:center;letter-spacing:0px;word-spacing:0px;writing-mode:lr-tb;text-anchor:middle;fill:#000000;fill-opacity:1;stroke:#000000;stroke-opacity:1"
     x="765.5155"
     y="1462.6155"
     id="text5257"><tspan
       sodipodi:role="line"
       x="765.5155"
       y="1462.6155"
       id="tspan5259">ДЕ ТВІЙ</tspan><tspan
       sodipodi:role="line"
       x="765.5155"
       y="1502.6155"
       id="tspan4535">ЗДОРОВИЙ ГЛУЗД?!!</tspan></text>
  <path
     style="display:inline;fill:#ffffff;stroke:none;stroke-width:0.94693309"
     d="m 633.97915,1961.6799 24.34936,22.9926 -14.1384,11.2015 7.06914,6.4851 -10.99645,6.4851 21.99301,4.7164 c -14.19019,14.4011 -33.29554,26.5886 -53.4115,38.3209 l 29.84753,-3.5372 c -1.46335,8.2739 -8.05403,15.5856 -14.13829,22.9925 l 31.41849,-10.0224 c 0.82102,5.5918 -5.33992,9.0873 -10.21095,12.9702 l 22.77837,-3.5374 -3.14181,4.7165 c 9.20801,-1.6054 17.9596,-2.8682 28.27665,-5.306 l -13.3529,15.9179 27.49118,-10.0224 7.06913,6.4851 7.06926,-7.0746 7.85462,24.1716 14.92377,-25.3507 9.87281,14.908 8.19288,-13.7289 c 10.11969,6.7889 15.21285,14.4672 18.85107,22.403 8.00761,-9.4328 15.98028,-18.8657 27.49118,-28.2985 4.93202,2.8076 11.89879,9.1789 20.42205,18.2761 l 5.49826,-12.3806 c 14.8447,8.2735 27.65505,17.056 35.34581,27.1194 v -25.3507 l 19.63655,12.9701 6.28364,-20.0448 17.28024,14.1492 1.57097,-16.5074 22.77836,11.7911 -0.78549,-10.0224 22.77851,7.6642 c 0,0 -5.67877,-16.1944 -1.90553,-19.3707 3.77314,-3.1763 30.96757,4.6318 30.96757,4.6318 0,0 -8.9724,-11.8475 -6.28365,-14.1492 2.68874,-2.3018 29.84761,0.5895 29.84761,0.5895 l -22.77847,-19.4552 c 16.88767,-6.3867 33.80007,-12.7548 54.19697,-16.5076 0,0 -25.438,-12.4461 -26.144,-15.4116 -0.706,-2.9654 12.0056,-6.4018 12.0056,-6.4018 l -24.3475,-8.6741 27.4893,-10.7811 -47.1277,1.179 21.2075,-20.6343 -35.34576,17.6866 14.92375,-38.3209 c -17.14385,16.4132 -40.15069,28.4259 -64.40795,39.5 l 8.64013,-13.5598 -31.41849,15.918 -3.14197,-31.2463 -12.56741,24.1717 c -10.99501,-12.9986 -17.01767,-27.0634 -19.63654,-41.8583 -2.19463,13.3632 -10.22844,26.7264 -21.99291,40.0896 l -8.64011,-29.4776 -18.85106,22.9925 -10.21109,-17.6866 -17.28009,21.8135 -18.85119,-33.6045 -3.9273,31.8359 -10.99645,-12.9702 -6.28378,15.3283 -17.28009,-21.8134 3.92731,24.1716 c -17.63248,-11.4659 -29.53796,-18.6333 -43.98591,-27.7089 l 15.70925,31.2463 -24.34934,-14.7389 9.42558,21.8135 -20.42205,-8.2537 3.14183,13.5597 z"
     id="path3497"
     inkscape:connector-curvature="0"
     sodipodi:nodetypes="ccccccccccccccccccccccccccccccccccczczccczccccccccccccccccccccccccccccccc" />
  <text
     xml:space="preserve"
     style="font-style:normal;font-variant:normal;font-weight:normal;font-stretch:normal;font-size:32px;line-height:1.25;font-family:Lavi;-inkscape-font-specification:'Lavi, Normal';font-variant-ligatures:normal;font-variant-caps:normal;font-variant-numeric:normal;font-feature-settings:normal;text-align:center;letter-spacing:0px;word-spacing:0px;writing-mode:lr-tb;text-anchor:middle;fill:#000000;fill-opacity:1;stroke:none;stroke-width:3;stroke-miterlimit:4;stroke-dasharray:none"
     x="800.37683"
     y="2008.8988"
     id="text5269"><tspan
       sodipodi:role="line"
       x="806.00183"
       y="2008.8988"
       style="stroke:#000000;stroke-width:3;stroke-miterlimit:4;stroke-dasharray:none;stroke-opacity:1"
       id="tspan4539">ДЕ СОУС </tspan><tspan
       sodipodi:role="line"
       x="800.37683"
       y="2048.8989"
       style="stroke:#000000;stroke-width:3;stroke-miterlimit:4;stroke-dasharray:none;stroke-opacity:1"
       id="tspan47">З БАРАНИНИ?!!!</tspan></text>
  <path
     style="color:#000000;display:inline;overflow:visible;visibility:visible;fill:#ffffff;fill-opacity:1;fill-rule:nonzero;stroke:none;stroke-width:0.41681838px;marker:none;enable-background:accumulate"
     d="m 883.41357,2136.2865 c 13.23538,-11.533 24.73372,-25.7162 39.9874,-34.1699 l -16.08011,-1.5709 c 3.56952,-6.4768 10.50187,-9.3295 16.29241,-13.4129 l -10.00942,-2.8259 c 8.61014,-15.1437 21.72646,-23.1402 32.66472,-34.5912 l -17.61896,-3.3928 c -9.63635,13.2372 -16.97453,28.3746 -29.19594,39.4745 l 9.65264,3.859 c -3.64586,4.5747 -7.485,8.9675 -12.18719,12.5478 l 12.36601,3.6752 z"
     id="path4032-3"
     inkscape:connector-curvature="0"
     sodipodi:nodetypes="cccccccccccc" />
</svg>
